Capstone Data Wrangle 01
…
forestcover

## # A tibble: 501 x 55
##    Elev.m Aspect.deg Slope.deg H2O_HD.m H2O_VD.m Road_HD.m Shade_9AM.255
##     <int>      <int>     <int>    <int>    <int>     <int>         <int>
##  1   2596         51         3      258        0       510           221
##  2   2590         56         2      212       -6       390           220
##  3   2804        139         9      268       65      3180           234
##  4   2785        155        18      242      118      3090           238
##  5   2595         45         2      153       -1       391           220
##  6   2579        132         6      300      -15        67           230
##  7   2606         45         7      270        5       633           222
##  8   2605         49         4      234        7       573           222
##  9   2617         45         9      240       56       666           223
## 10   2612         59        10      247       11       636           228
## # ... with 491 more rows, and 48 more variables: Shade_12PM.255 <int>,
## #   Shade_3PM.255 <int>, FirePt_HD.m <int>, RW_Wild <int>, NE_Wild <int>,
## #   CM_Wild <int>, CP_Wild <int>, ST01 <int>, ST02 <int>, ST03 <int>,
## #   ST04 <int>, ST05 <int>, ST06 <int>, ST07 <int>, ST08 <int>,
## #   ST09 <int>, ST10 <int>, ST11 <int>, ST12 <int>, ST13 <int>,
## #   ST14 <int>, ST15 <int>, ST16 <int>, ST17 <int>, ST18 <int>,
## #   ST19 <int>, ST20 <int>, ST21 <int>, ST22 <int>, ST23 <int>,
## #   ST24 <int>, ST25 <int>, ST26 <int>, ST27 <int>, ST28 <int>,
## #   ST29 <int>, ST30 <int>, ST31 <int>, ST32 <int>, ST33 <int>,
…
xform

## # A tibble: 40 x 62
##       ST USFS_Code Description  Montane_low Montane Subalpine Alpine   Dry
##    <int>     <int> <fct>              <int>   <int>     <int>  <int> <int>
##  1    36      8707 Bross famil~          NA      NA        NA      1    NA
##  2    11      4704 Bullwark - ~          NA       1        NA     NA    NA
##  3    10      4703 Bullwark - ~          NA       1        NA     NA    NA
##  4    13      4758 Catamount f~          NA       1        NA     NA    NA
##  5    32      7756 Catamount f~          NA      NA         1     NA    NA
##  6     1      2702 Cathedral f~           1      NA        NA     NA    NA
##  7    29      7745 Como - Lega~          NA      NA         1     NA    NA
##  8    30      7746 Como family~          NA      NA         1     NA    NA
##  9    16      6101 Cryaquolls ~          NA       1         1     NA    NA
## 10    34      7790 Cryorthents~          NA      NA         1     NA    NA
## # ... with 30 more rows, and 54 more variables: Non_Dry <int>,
## #   Alluviam <int>, Glacial <int>, Sed_mix <int>, Ign_Meta <int>,
## #   Aquolis_cmplx <int>, Argiborolis_Pachic <int>,
## #   Borohemists_cmplx <int>, Bross <int>, Bullwark <int>,
## #   Bullwark_Cmplx <int>, Catamount <int>, Catamount_cmplx <int>,
## #   Cathedral <int>, Como <int>, Cryaquepts_cmplx <int>,
## #   Cryaquepts_Typic <int>, Cryaquolls <int>, Cryaquolls_cmplx <int>,
## #   Cryaquolls_Typic <int>, Cryaquolls_Typic_cmplx <int>,
## #   Cryoborolis_cmplx <int>, Cryorthents <int>, Cryorthents_cmplx <int>,
…
Expand Soil type

The soil type needs to be expanded into columns that comprise the different components of each soil type. A particular soil type represents the climate zone, geologic zone, one or more soil families and one or more rock densities for a given sample/row.

The xform data set drives the conversion of soil type to additional columns noted above. Each row in the xform data set corresponds to one of the 40 possible soil types in the forest coverage data set. The first 3 columns identify the soil type number that corresponds to the soil type column in the forest coverage data set, a US Forest Service soil code and a description of the soil families and rock densities for the soil type. The remaining columns are the columns that will be added to the forest coverage data set and the values for each column.

I created the xform data set to reflect what I think would be a good way to break out the soil type. I may want to change the way the data is broken out and therefore want later changes to data encoding to be easier by using the xform data set to be the source of column names and values with minimum hard coding involved.

The xform dataset is sorted by ST, the soil type column, so that it can be indexed by the soil type index that will be calculated in the forest coverage data set.

xform<-arrange(xform,ST)
xform

## # A tibble: 40 x 62
##       ST USFS_Code Description  Montane_low Montane Subalpine Alpine   Dry
##    <int>     <int> <fct>              <int>   <int>     <int>  <int> <int>
##  1     1      2702 Cathedral f~           1      NA        NA     NA    NA
##  2     2      2703 Vanet - Rat~           1      NA        NA     NA    NA
##  3     3      2704 Haploboroli~           1      NA        NA     NA    NA
##  4     4      2705 Ratake fami~           1      NA        NA     NA    NA
##  5     5      2706 Vanet famil~           1      NA        NA     NA    NA
##  6     6      2717 Vanet - Wet~           1      NA        NA     NA    NA
##  7     7      3501 Gothic fami~          NA       1        NA     NA     1
##  8     8      3502 Supervisor ~          NA       1        NA     NA     1
##  9     9      4201 Troutville ~          NA       1        NA     NA    NA
## 10    10      4703 Bullwark - ~          NA       1        NA     NA    NA
## # ... with 30 more rows, and 54 more variables: Non_Dry <int>,
## #   Alluviam <int>, Glacial <int>, Sed_mix <int>, Ign_Meta <int>,
## #   Aquolis_cmplx <int>, Argiborolis_Pachic <int>,
## #   Borohemists_cmplx <int>, Bross <int>, Bullwark <int>,
## #   Bullwark_Cmplx <int>, Catamount <int>, Catamount_cmplx <int>,
## #   Cathedral <int>, Como <int>, Cryaquepts_cmplx <int>,
## #   Cryaquepts_Typic <int>, Cryaquolls <int>, Cryaquolls_cmplx <int>,
## #   Cryaquolls_Typic <int>, Cryaquolls_Typic_cmplx <int>,
## #   Cryoborolis_cmplx <int>, Cryorthents <int>, Cryorthents_cmplx <int>,
…
